{
  "type": "object",
  "properties": {
    "data": {
      "type": "array",
      "items": {
        "type": "object",
        "properties": {
          "id": {
            "type": "integer"
          },
          "my_check_in_ends_on": {
            "type": "null"
          },
          "name": {
            "type": "string"
          },
          "background": {
            "type": ["null", "string"]
          },
          "lat": {
            "type": "number"
          },
          "lng": {
            "type": "number"
          },
          "followers_count": {
            "type": "object",
            "properties": {
              "female": {
                "type": "integer"
              },
              "male": {
                "type": "integer"
              }
            },
            "required": [
              "female",
              "male"
            ]
          },
          "following": {
            "type": "boolean"
          },
          "unnotify": {
            "type": "boolean"
          },
          "check_ins": {
            "type": "integer"
          },
          "available_check_ins": {
            "type": "integer"
          }
        },
        "required": [
          "id",
          "my_check_in_ends_on",
          "name",
          "background",
          "lat",
          "lng",
          "followers_count",
          "following",
          "unnotify",
          "check_ins",
          "available_check_ins"
        ]
      }
    }
  },
  "required": [
    "data"
  ]
}
